{
  "container": "tuxbake/mbedtls-ubuntu-16.04",
  "sources": {
    "mbedtls": {
      "url": "https://github.com/Mbed-TLS/mbedtls",
      "cmds": "ulimit -f 20971520 && export MBEDTLS_TEST_OUTCOME_FILE='outcome.csv' && ./tests/scripts/all.sh --seed 8 build_armcc"
    }
  }
}
