{
  "container": "ubuntu-20.04",
  "distro": "rpb",
  "envsetup": "setup-environment",
  "machine": "dragonboard-845c",
  "sources": {
    "repo": {
      "branch": "qcom/dunfell",
      "manifest": "default.xml",
      "url": "https://github.com/96boards/oe-rpb-manifest.git"
    }
  },
  "target": "rpb-console-image rpb-console-image-test rpb-desktop-image rpb-desktop-image-test"
}
